{
    "swagger": "2.0",
    "info": {
        "title": "DBKF-API",
        "description": "顶贝客服CRUD API",
        "version": "1.0.0"
    },
    "host": "www.dbkf_api.com",
    "schemes": [
        "http"
    ],
    "basePath": "/v1",
    "produces": [
        "application/json"
    ],
    "paths": {
        "/company/account/login": {
            "post": {
                "description": "管理员登陆",
                "parameters": [
                    {
                        "name": "email",
                        "in": "query",
                        "description": "管理员邮箱",
                        "required": true,
                        "type": "string",
                        "format": "email"
                    },
                    {
                        "name": "password",
                        "in": "query",
                        "description": "管理员密码",
                        "required": true,
                        "type": "string"
                    },
                    {
                        "name": "remember",
                        "in": "query",
                        "description": "记忆登陆",
                        "required": false,
                        "type": "integer"
                    }
                ],
                "tags": [
                    "Company"
                ],
                "responses": {
                    "200": {
                        "description": "登陆成功",
                        "schema": {
                            "type": "object",
                            "properties": {
                                "result": {
                                    "type": "object",
                                    "properties": {
                                        "name": {
                                            "type": "string",
                                            "description": "公司名称"
                                        },
                                        "id": {
                                            "type": "integer",
                                            "description": "公司ID"
                                        },
                                        "code": {
                                            "type": "string",
                                            "description": "公司代码"
                                        },
                                        "token": {
                                            "type": "string",
                                            "description": "JWT令牌"
                                        },
                                        "expire": {
                                            "type": "string",
                                            "format": "date-time",
                                            "description": "过期时间"
                                        },
                                        "is_first_login": {
                                            "type": "integer",
                                            "description": "是否首次登陆"
                                        }
                                    }
                                }
                            }
                        }
                    },
                    "400": {
                        "description": "登录失败",
                        "schema": {
                            "type": "object",
                            "properties": {
                                "message": {
                                    "type": "string",
                                    "description": "例如 \"账号密码错误\" 或 \"账号尚未审核通过\""
                                }
                            }
                        }
                    }
                }
            }
        },
        "/company/account/logout": {
            "get": {
                "description": "退出登录",
                "parameters": [
                    {
                        "name": "Authorization",
                        "in": "header",
                        "description": "JWT令牌",
                        "required": true,
                        "type": "string"
                    }
                ],
                "tags": [
                    "Company"
                ],
                "responses": {
                    "200": {
                        "description": "退出成功",
                        "schema": {
                            "type": "object",
                            "properties": {
                                "result": {
                                    "type": "object",
                                    "properties": {
                                        "name": {
                                            "type": "string",
                                            "description": "公司名称"
                                        },
                                        "id": {
                                            "type": "integer",
                                            "description": "公司ID"
                                        },
                                        "code": {
                                            "type": "string",
                                            "description": "公司代码"
                                        }
                                    }
                                }
                            }
                        }
                    },
                    "400": {
                        "description": "退出失败"
                    }
                }
            }
        },
        "/company/account/register": {
            "post": {
                "description": "申请账号",
                "parameters": [
                    {
                        "name": "email",
                        "in": "query",
                        "description": "管理员邮箱",
                        "required": true,
                        "type": "string",
                        "format": "email"
                    },
                    {
                        "name": "password",
                        "in": "query",
                        "description": "管理员密码（6-16位）",
                        "required": true,
                        "type": "string"
                    },
                    {
                        "name": "name",
                        "in": "query",
                        "description": "企业名称",
                        "required": true,
                        "type": "string"
                    },
                    {
                        "name": "contact",
                        "in": "query",
                        "description": "联系人姓名",
                        "required": true,
                        "type": "string"
                    },
                    {
                        "name": "mobile",
                        "in": "query",
                        "description": "手机号码（1开头的11位数字）",
                        "required": true,
                        "type": "string"
                    },
                    {
                        "name": "code",
                        "in": "query",
                        "description": "代码（域名前缀，至少4位）",
                        "required": true,
                        "type": "string"
                    }
                ],
                "tags": [
                    "Company"
                ],
                "responses": {
                    "200": {
                        "description": "申请成功"
                    },
                    "400": {
                        "description": "申请失败",
                        "schema": {
                            "type": "object",
                            "properties": {
                                "invalid": {
                                    "$ref": "#/definitions/InvalidError"
                                }
                            }
                        },
                        "examples": {
                            "application/json": {
                                "invalid": {
                                    "code": [
                                        "代码 不能为空."
                                    ],
                                    "name": [
                                        "名称 不能为空."
                                    ],
                                    "contact": [
                                        "联系人 不能为空."
                                    ]
                                }
                            }
                        }
                    }
                }
            }
        },
        "/company/account/register-check-unique": {
            "get": {
                "description": "验证唯一",
                "parameters": [
                    {
                        "name": "email",
                        "in": "query",
                        "description": "管理员邮箱",
                        "required": false,
                        "type": "string",
                        "format": "email"
                    },
                    {
                        "name": "mobile",
                        "in": "query",
                        "description": "手机号码（1开头的11位数字）",
                        "required": false,
                        "type": "string"
                    },
                    {
                        "name": "code",
                        "in": "query",
                        "description": "代码（域名前缀，至少4位）",
                        "required": false,
                        "type": "string"
                    }
                ],
                "tags": [
                    "Company"
                ],
                "responses": {
                    "200": {
                        "description": "验证唯一"
                    },
                    "400": {
                        "description": "验证不唯一",
                        "schema": {
                            "type": "object",
                            "properties": {
                                "invalid": {
                                    "$ref": "#/definitions/InvalidError"
                                }
                            }
                        }
                    }
                }
            }
        },
        "/company/account/change-password": {
            "post": {
                "description": "修改密码",
                "parameters": [
                    {
                        "name": "Authorization",
                        "in": "header",
                        "description": "JWT令牌",
                        "required": true,
                        "type": "string"
                    },
                    {
                        "name": "old_password",
                        "in": "query",
                        "description": "旧密码",
                        "required": true,
                        "type": "string"
                    },
                    {
                        "name": "new_password",
                        "in": "query",
                        "description": "新密码",
                        "required": true,
                        "type": "string"
                    }
                ],
                "tags": [
                    "Company"
                ],
                "responses": {
                    "200": {
                        "description": "修改成功"
                    },
                    "400": {
                        "description": "修改失败（返回的invalid中可能有字段new_password或old_password）",
                        "schema": {
                            "type": "object",
                            "properties": {
                                "invalid": {
                                    "$ref": "#/definitions/InvalidError"
                                }
                            }
                        }
                    }
                }
            }
        },
        "/company/account/edit": {
            "post": {
                "description": "修改账号资料",
                "parameters": [
                    {
                        "name": "Authorization",
                        "in": "header",
                        "description": "JWT令牌",
                        "required": true,
                        "type": "string"
                    },
                    {
                        "name": "email",
                        "in": "query",
                        "description": "管理员邮箱",
                        "required": true,
                        "type": "string",
                        "format": "email"
                    },
                    {
                        "name": "name",
                        "in": "query",
                        "description": "企业名称",
                        "required": true,
                        "type": "string"
                    },
                    {
                        "name": "contact",
                        "in": "query",
                        "description": "联系人姓名",
                        "required": true,
                        "type": "string"
                    }
                ],
                "tags": [
                    "Company"
                ],
                "responses": {
                    "200": {
                        "description": "修改成功",
                        "schema": {
                            "type": "object",
                            "properties": {
                                "result": {
                                    "type": "object",
                                    "properties": {
                                        "name": {
                                            "type": "string",
                                            "description": "公司名称"
                                        },
                                        "token": {
                                            "type": "string",
                                            "description": "JWT令牌，如果name更新了则token会更新"
                                        }
                                    }
                                }
                            }
                        }
                    },
                    "400": {
                        "description": "修改失败",
                        "schema": {
                            "type": "object",
                            "properties": {
                                "invalid": {
                                    "$ref": "#/definitions/InvalidError"
                                }
                            }
                        }
                    }
                }
            }
        },
        "/company/account/info": {
            "get": {
                "description": "获取公司信息",
                "parameters": [
                    {
                        "name": "Authorization",
                        "in": "header",
                        "description": "JWT令牌",
                        "required": true,
                        "type": "string"
                    }
                ],
                "tags": [
                    "Company"
                ],
                "responses": {
                    "200": {
                        "description": "返回公司信息",
                        "schema": {
                            "type": "object",
                            "properties": {
                                "result": {
                                    "type": "array",
                                    "items": {
                                        "$ref": "#/definitions/Company"
                                    }
                                }
                            }
                        }
                    }
                }
            }
        },
        "/company/worker/create": {
            "post": {
                "description": "创建工号",
                "parameters": [
                    {
                        "name": "Authorization",
                        "in": "header",
                        "description": "JWT令牌",
                        "required": true,
                        "type": "string"
                    },
                    {
                        "name": "nickname",
                        "in": "query",
                        "description": "昵称",
                        "required": true,
                        "type": "string"
                    },
                    {
                        "name": "password",
                        "in": "query",
                        "description": "密码（6-16位）",
                        "required": true,
                        "type": "string"
                    },
                    {
                        "name": "mobile",
                        "in": "query",
                        "description": "手机号码（1开头的11位数字）",
                        "required": true,
                        "type": "string"
                    }
                ],
                "tags": [
                    "Company"
                ],
                "responses": {
                    "200": {
                        "description": "提交成功",
                        "schema": {
                            "type": "object",
                            "properties": {
                                "result": {
                                    "$ref": "#/definitions/Worker"
                                }
                            }
                        }
                    },
                    "400": {
                        "description": "申请失败",
                        "schema": {
                            "type": "object",
                            "properties": {
                                "invalid": {
                                    "$ref": "#/definitions/InvalidError"
                                }
                            }
                        }
                    }
                }
            }
        },
        "/company/worker/index": {
            "get": {
                "description": "工号列表",
                "parameters": [
                    {
                        "name": "Authorization",
                        "in": "header",
                        "description": "JWT令牌",
                        "required": true,
                        "type": "string"
                    }
                ],
                "tags": [
                    "Company"
                ],
                "responses": {
                    "200": {
                        "description": "返回工号列表",
                        "schema": {
                            "type": "object",
                            "properties": {
                                "result": {
                                    "type": "array",
                                    "items": {
                                        "$ref": "#/definitions/Worker"
                                    }
                                }
                            }
                        }
                    }
                }
            }
        },
        "/company/worker/enable/1001": {
            "post": {
                "description": "启用工号",
                "parameters": [
                    {
                        "name": "Authorization",
                        "in": "header",
                        "description": "JWT令牌",
                        "required": true,
                        "type": "string"
                    }
                ],
                "tags": [
                    "Company"
                ],
                "responses": {
                    "200": {
                        "description": "启用成功"
                    },
                    "400": {
                        "description": "启用失败",
                        "schema": {
                            "type": "object",
                            "properties": {
                                "message": {
                                    "type": "string",
                                    "description": "失败原因，通常是\"already enabled.\""
                                }
                            }
                        }
                    }
                }
            }
        },
        "/company/worker/disable/1001": {
            "post": {
                "description": "禁用工号",
                "parameters": [
                    {
                        "name": "Authorization",
                        "in": "header",
                        "description": "JWT令牌",
                        "required": true,
                        "type": "string"
                    }
                ],
                "tags": [
                    "Company"
                ],
                "responses": {
                    "200": {
                        "description": "禁用成功"
                    },
                    "400": {
                        "description": "禁用失败",
                        "schema": {
                            "type": "object",
                            "properties": {
                                "message": {
                                    "type": "string",
                                    "description": "失败原因，通常是\"already disabled.\""
                                }
                            }
                        }
                    }
                }
            }
        },
        "/company/worker/edit/1001": {
            "post": {
                "description": "编辑工号",
                "parameters": [
                    {
                        "name": "Authorization",
                        "in": "header",
                        "description": "JWT令牌",
                        "required": true,
                        "type": "string"
                    },
                    {
                        "name": "nickname",
                        "in": "query",
                        "description": "昵称",
                        "required": true,
                        "type": "string"
                    },
                    {
                        "name": "password",
                        "in": "query",
                        "description": "密码（6-16位）",
                        "required": true,
                        "type": "string"
                    },
                    {
                        "name": "mobile",
                        "in": "query",
                        "description": "手机号码（1开头的11位数字）",
                        "required": true,
                        "type": "string"
                    }
                ],
                "tags": [
                    "Company"
                ],
                "responses": {
                    "200": {
                        "description": "提交成功",
                        "schema": {
                            "type": "object",
                            "properties": {
                                "result": {
                                    "$ref": "#/definitions/Worker"
                                }
                            }
                        }
                    },
                    "400": {
                        "description": "申请失败",
                        "schema": {
                            "type": "object",
                            "properties": {
                                "invalid": {
                                    "$ref": "#/definitions/InvalidError"
                                }
                            }
                        }
                    }
                }
            }
        },
        "/worker/account/login": {
            "post": {
                "description": "工号登陆",
                "parameters": [
                    {
                        "name": "fullname",
                        "in": "query",
                        "description": "工号全名，形如\"1001@003dbkf\"",
                        "required": true,
                        "type": "string",
                        "format": "email"
                    },
                    {
                        "name": "password",
                        "in": "query",
                        "description": "工号密码",
                        "required": true,
                        "type": "string"
                    },
                    {
                        "name": "remember",
                        "in": "query",
                        "description": "记忆登陆",
                        "required": false,
                        "type": "integer"
                    }
                ],
                "tags": [
                    "Worker"
                ],
                "responses": {
                    "200": {
                        "description": "登陆成功，返回result中还有token和expire",
                        "schema": {
                            "type": "object",
                            "properties": {
                                "result": {
                                    "$ref": "#/definitions/Worker"
                                }
                            }
                        }
                    },
                    "400": {
                        "description": "登录失败",
                        "schema": {
                            "type": "object",
                            "properties": {
                                "message": {
                                    "type": "string",
                                    "description": "例如 \"工号密码错误\""
                                }
                            }
                        }
                    }
                }
            }
        },
        "/worker/account/logout": {
            "post": {
                "description": "工号退出",
                "parameters": [
                    {
                        "name": "Authorization",
                        "in": "header",
                        "description": "JWT令牌",
                        "required": true,
                        "type": "string"
                    }
                ],
                "tags": [
                    "Worker"
                ],
                "responses": {
                    "200": {
                        "description": "退出成功",
                        "schema": {
                            "type": "object",
                            "properties": {
                                "result": {
                                    "type": "object",
                                    "properties": {
                                        "name": {
                                            "type": "string",
                                            "description": "公司名称"
                                        },
                                        "id": {
                                            "type": "integer",
                                            "description": "公司ID"
                                        },
                                        "nickname": {
                                            "type": "string",
                                            "description": "昵称"
                                        }
                                    }
                                }
                            }
                        }
                    },
                    "400": {
                        "description": "退出失败"
                    }
                }
            }
        }
    },
    "definitions": {
        "InvalidError": {
            "type": "object",
            "description": "校验错误的详细信息",
            "properties": {
                "this_is_error_field_name": {
                    "type": "array",
                    "items": {
                        "type": "string",
                        "description": "错误信息"
                    }
                }
            }
        },
        "Worker": {
            "type": "object",
            "description": "工号",
            "properties": {
                "mobile": {
                    "type": "string"
                },
                "nickname": {
                    "type": "string"
                },
                "name": {
                    "type": "string",
                    "description": "工号，形如 \"1001\""
                },
                "status": {
                    "type": "integer",
                    "description": "状态，默认1"
                },
                "online": {
                    "type": "integer",
                    "description": "是否在线，默认0"
                },
                "create_time": {
                    "type": "string",
                    "format": "date-time"
                },
                "update_time": {
                    "type": "string",
                    "format": "date-time"
                },
                "fullName": {
                    "type": "string",
                    "description": "完整工号，形如\"1018@003dbkf\""
                }
            }
        },
        "Company": {
            "type": "object",
            "properties": {
                "id": {
                    "type": "integer"
                },
                "code": {
                    "type": "string"
                },
                "name": {
                    "type": "string"
                },
                "contact": {
                    "type": "string",
                    "description": "联系人"
                },
                "email": {
                    "type": "string"
                },
                "password": {
                    "type": "string"
                },
                "mobile": {
                    "type": "string"
                },
                "status": {
                    "type": "integer",
                    "description": "0 待审核 1已审核"
                },
                "approval_time": {
                    "type": "string",
                    "format": "date-time",
                    "description": "审核时间"
                },
                "create_time": {
                    "type": "string",
                    "format": "date-time",
                    "description": "申请时间"
                },
                "update_time": {
                    "type": "string",
                    "format": "date-time",
                    "description": "数据更新时间"
                }
            }
        },
        "Conversation": {
            "type": "object",
            "description": "对话",
            "properties": {
                "id": {
                    "type": "integer"
                },
                "uid": {
                    "type": "integer"
                },
                "cid": {
                    "type": "integer",
                    "description": "客服ID"
                },
                "body": {
                    "type": "string",
                    "description": "对话结构体"
                },
                "count": {
                    "type": "integer",
                    "description": "对话条数"
                },
                "start_time": {
                    "type": "string",
                    "format": "date-time",
                    "description": "对话开始时间"
                },
                "talk_time": {
                    "type": "string",
                    "format": "date-time",
                    "description": "用户开口时间"
                },
                "end_time": {
                    "type": "string",
                    "format": "date-time",
                    "description": "对话结束时间"
                },
                "landing_url": {
                    "type": "string",
                    "description": "着陆页"
                },
                "talk_url": {
                    "type": "string",
                    "description": "用户开口页面"
                },
                "leave_url": {
                    "type": "string",
                    "description": "用户离开页面"
                },
                "first_resp_time": {
                    "type": "integer",
                    "description": "首次回复时间"
                },
                "avg_resp_time": {
                    "type": "integer",
                    "description": "平均回复时间"
                }
            }
        }
    }
}